Scalar-on-distribution regression for assessing the impact of climate change on rice yield in Vietnam
…
2.6 Table 3

Show the code

Tab3Com <- PredictAllmelt %>% group_by(Region, `Regression models`)%>%
  summarise(meanv = round(mean(value),2),
            medianv =round( median(value),2),
            sdv = round(sd(value), 2))

Tab3Com$meansd <- paste0(Tab3Com$meanv, " (", Tab3Com$sdv, ")")

Tab3Com[, c(1, 2, 4, 6)]

# A tibble: 24 × 4
# Groups:   Region [6]
   Region `Regression models`  medianv meansd     
   <fct>  <fct>                  <dbl> <chr>      
 1 SR     Annual mean             0.66 1.25 (1.46)
 2 SR     Schlenker and Robert    0.91 1.42 (1.59)
 3 SR     Discrete                0.79 1.34 (1.55)
 4 SR     Smooth                  0.24 0.36 (0.42)
 5 CHR    Annual mean             0.52 1.49 (2.3) 
 6 CHR    Schlenker and Robert    0.49 1.5 (2.26) 
 7 CHR    Discrete                0.63 1.53 (2.38)
 8 CHR    Smooth                  0.14 0.31 (0.39)
 9 MDR    Annual mean             0.43 0.99 (1.5) 
10 MDR    Schlenker and Robert    0.46 1.02 (1.54)
# ℹ 14 more rows
…
